{
  "phrases": [
    {
      "title": "Feliz 5° Aniversario, Amor!",
      "description": "Pareciera que fue ayer, cuando nos conocimos, y decidimos estar juntos. Sé que ha sido muy difícil seguir conllevando la relación, pros y contras nos han pasado a lo largo de estos años, muchas veces llorando, otras veces ríendo, otras veces dudando, otras veces sobrepensando las cosas, pero ahí estamos nosotros, dando todo lo que podemos para que siga flotando el amorsh!!",
      "img": [
        "/public/img/dani_piero.jpeg",
        "/public/img/dani_piero_2.jpeg",
        "/public/img/dani_piero_3.jpeg"
      ],
      "emoji": "🥰"
    },
    {
      "title": "5 años de emociones!",
      "img": [
        "/public/img/dani_piero_4.jpeg",
        "/public/img/dani_piero_5.jpeg"
      ],
      "description": "Las emociones han ido incrementando con el paso del tiempo, muchas veces creí que yo era una persona muy fría, que no tenía sentimientos, pero desde que te conocí eso ha mejorado demasiado, sé que no te demuestro todo lo que siento, todo lo que quiero decirte, a veces soy muy temeroso, tal vez pueda herirte con mis palabras, pero eso está cambiando y mejorando, y espero que sigas conmigo para que puedas ver esos cambios!",
      "emoji": "😓"
    },
    {
      "title": "Que puedo decirte",
      "img": [
        "/public/img/dani_piero_6.jpeg",
        "/public/img/dani_piero_7.png",
        "/public/img/dani_piero_8.jpeg"
      ],
      "description": "Eres una grandiosa chica, tienes muchas cualidades que te hacen destacar como mujer, como hermana, como mi novia. Estoy muy orgulloso de ti, aunque aún te falte cumplir muchas metas más, espero que algún día puedas lograrlo y sientas esa satisfacción de haberlo conseguido. Has sido muy paciente conmigo, me has hecho ver muchas cosas que yo no puedo, eres muy directa pero todo para bien, para mejorar, no para seguir siendo lo mismo, y eso es lo que más aprecio de ti, en verdad eres muy buena con las personas que amas, espero jamás se te quite esa actitud!!",
      "emoji": "🥺"
    },
    {
      "title": "Te amo, te quiero, y te deseo ❤️",
      "img": [
        "/public/img/dani_piero_9.jpeg",
        "/public/img/dani_piero_10.jpeg",
        "/public/img/dani_piero_11.jpeg"
      ],
      "description": "Aunque muchas veces creas que no es así, eso es lo que siento actualmente por ti, hasta ahora no me pasa por la cabeza que otra mujer ocupe tu lugar, y eso es lo más triste porque quiero demostrartelo que es así, no tengo ninguna confusión con respecto a eso, asi que espero me des esa oportunidad de demostrarte, literal estoy loco por ti, hago pequeños sacrificios por verte feliz, y sobre todo eres gran parte de mi felicidad, y eso es algo que no quiero perder :,v",
      "emoji": "😢"
    },
    {
      "title": "I'm Not The Only One",
      "img": [
        "/public/img/dani_piero_12.jpeg",
        "/public/img/dani_piero_13.jpeg"
      ],
      "description": "Es una frase que me enseñaste hace unas semanas, y me la estuviste cantando por mucho tiempo sin darme cuenta, el significado que tiene. Y ahora sé que hice mucho daño realizando acciones que te han hecho dudar. Quiero sacarte una gran parte de esa duda con el paso del tiempo, porque aún te necesito aquí conmigo, todos los planes que hemos hablado ni siquiera se han hecho realidad, y quiero a realizarlos solamente contigo. Eres la única que me hace realizar este tipo de detalles, de ser una mejor versión de mí, de calmar mis días más tristes, de darme la felicidad que actualmente tengo por que estás a mi lado. Eres la única amor, te prometo que es así y no lo que piensas o sobrepiensas. ❤️",
      "emoji": "🫀"
    }
  ]
}
